     - assets/app-logo.png
     - assets/bone.png
     - assets/fb-icon.png
     - assets/logo.png
     - assets/post-picture-001.png
     - assets/profile-picture.png
     - assets/reset-password-icon.png
     - assets/user-picture.png
